-14.1384843718466,-17.58395620333,0.575319040531449
-7.26048437184662,-26.83155620333,-1.19028095946855
0.11551562815338,-26.66645620333,-0.72868095946855
7.91871562815338,-26.67075620333,-1.04428095946855
14.6561156281534,-18.05435620333,1.04971904053145
23.2123156281534,-13.11265620333,0.581219040531449
26.5253156281534,-3.33965620332997,-1.93478095946855
25.3954156281534,6.39154379667003,-4.38248095946855
20.7367156281534,18.29824379667,-7.60078095946855
12.8737156281534,25.42064379667,-9.89578095946855
-0.439884371846619,28.63664379667,-10.8155809594685
-9.40218437184662,26.02024379667,-9.49268095946855
-16.5247843718466,20.56614379667,-7.61858095946855
-26.7073843718466,10.38844379667,-6.34038095946855
-26.8891843718466,-2.43285620332997,-2.24478095946855
-22.3525843718466,-13.35725620333,0.38881904053145
2.24661562815338,17.69424379667,-3.02988095946855
-2.12388437184662,-15.09485620333,4.78031904053145
19.7537156281534,15.25684379667,-5.37158095946855
-11.8493843718466,-15.33605620333,1.49071904053145
-16.4091843718466,17.60904379667,-5.90288095946855
11.6050156281534,12.53304379667,-1.69988095946855
-7.49838437184662,3.93594379667003,2.17941904053145
-7.31528437184662,14.78344379667,-2.14178095946855
-9.06608437184662,23.17634379667,-7.37178095946855
2.34491562815338,7.54794379667003,1.94251904053145
24.0062156281534,2.62154379667003,-2.42478095946855
13.3932156281534,-16.86575620333,1.67981904053145
1.64081562815338,-23.90165620333,1.57661904053145
-24.2741843718466,6.80664379667003,-4.13378095946855
9.25081562815338,0.769543796670028,3.08861904053145
-9.03298437184662,-7.40345620332997,3.46971904053145
7.45651562815338,-23.55565620333,-0.290680959468551
15.0309156281534,-7.51165620332997,2.05641904053145
22.4723156281534,-8.57005620332997,0.0119190405314491
5.34821562815338,-17.93605620333,3.68731904053145
0.436615628153381,-3.73065620332997,5.18151904053145
17.4663156281534,3.10354379667003,0.117719040531449
0.48891562815338,25.99294379667,-8.52308095946855
12.1061156281534,22.65794379667,-7.53918095946855
-15.8503843718466,-2.10945620332997,0.584519040531449
-18.6307843718466,-11.63365620333,0.59991904053145
-23.7023843718466,-4.50985620332997,-1.24718095946855
-5.51258437184662,-22.21915620333,0.51291904053145
-15.3069843718466,8.46784379667003,-1.36238095946855
7.21351562815338,-9.88575620332997,4.74141904053145
